<svg viewBox="0 0 1000 259" role="image" aria-label="Hireup" xmlns="http://www.w3.org/2000/svg">
    <path fill="#1b22e6" d="M237.82 3.68a7.155 7.155 0 00-4.49-3.04c-2.08-.43-4.72.62-9.94 2.7l-79.21 31.67c-5.18 2.06-7.76 3.1-9.66 4.84-1.68 1.51-2.97 3.44-3.77 5.55-.9 2.42-.9 5.19-.9 10.76v197.15c0 2.61 2.13 4.74 4.72 4.74 57.67 0 104.41-46.72 104.41-104.36V13.92c.02-5.64.02-8.44-1.16-10.24zM105.22 51.87c-2.09-.43-4.72.62-9.94 2.7L16.06 86.24c-5.17 2.06-7.76 3.11-9.65 4.84-1.69 1.51-2.97 3.44-3.78 5.55-.9 2.42-.9 5.19-.9 10.76v46.3c0 57.66 46.72 104.41 104.41 104.36 2.61 0 4.73-2.13 4.73-4.74V65.15c0-5.62 0-8.44-1.19-10.24a7.016 7.016 0 00-4.46-3.04z"></path>
    <path fill="#131b39" d="M324.41 51.25h33.19v59.56h61.55V51.25h33.19v153.84h-33.19v-62.64H357.6v62.64h-33.19V51.25zM517.44 65.11c0 2.49-.48 4.86-1.43 7.13a17.89 17.89 0 01-3.96 5.93c-1.68 1.69-3.65 3.04-5.93 4.06-2.28 1.02-4.72 1.54-7.35 1.54-2.64 0-5.1-.52-7.36-1.54-2.28-1.02-4.25-2.37-5.93-4.06a18.2 18.2 0 01-3.96-5.93c-.95-2.27-1.43-4.64-1.43-7.13s.48-4.87 1.43-7.14a18.2 18.2 0 013.96-5.93c1.68-1.69 3.65-3.04 5.93-4.06 2.28-1.02 4.72-1.54 7.36-1.54 2.63 0 5.1.52 7.35 1.54 2.28 1.02 4.25 2.4 5.93 4.06 1.69 1.68 3.02 3.67 3.96 5.93a18.61 18.61 0 011.43 7.14zM482.7 205.09V96.53h32.1v108.56h-32.1zM610.2 127.72c-1.75-.88-4.46-1.33-8.14-1.33-8.94 0-15.89 3.09-20.87 9.23-4.99 6.14-7.48 14.59-7.48 25.28v44.17h-31.86V96.53h31.65v17.81c2.94-6.28 7.12-11.24 12.53-14.82 5.43-3.58 11.64-5.38 18.69-5.38 1.16 0 2.3.07 3.42.21 1.09.14 1.8.31 2.09.45v32.92h-.03z"></path>
    <path fill="#131b39" d="M728.02 179.17c-4.53 8.94-11.1 15.96-19.67 21.1-8.56 5.13-18.79 7.69-30.68 7.69-8.49 0-16.27-1.4-23.29-4.18-7.03-2.77-13.08-6.71-18.13-11.76-5.05-5.05-9.01-11.1-11.86-18.12-2.85-7.02-4.3-14.73-4.3-23.08 0-8.2 1.43-15.77 4.3-22.74 2.87-6.95 6.81-13 11.86-18.12 5.05-5.13 10.99-9.11 17.82-11.98 6.81-2.85 14.26-4.29 22.32-4.29 8.21 0 15.73 1.42 22.54 4.29 6.81 2.87 12.65 6.85 17.49 11.98 4.84 5.12 8.61 11.24 11.31 18.35 2.71 7.12 4.06 14.92 4.06 23.41 0 1.9-.05 3.51-.12 4.84-.07 1.33-.19 2.35-.33 3.09h-79.79c.29 3.22 1.17 6.14 2.64 8.79 1.47 2.64 3.41 4.96 5.83 6.93 2.42 1.97 5.13 3.51 8.14 4.63 3.01 1.09 6.19 1.66 9.56 1.66 6 0 10.77-1.17 14.28-3.51 3.52-2.35 6.53-5.58 9.02-9.68l27 10.7zm-27.69-40.44c-.73-5.86-3.3-10.65-7.68-14.4-4.39-3.72-9.9-5.6-16.49-5.6-3.23 0-6.24.55-9.02 1.66a25.872 25.872 0 00-7.47 4.51c-2.21 1.9-3.99 4.03-5.39 6.38-1.4 2.35-2.23 4.84-2.54 7.47h48.59v-.02z"></path>
    <path fill="#131b39" d="M820.57 96.53h32.1v108.56h-32.1v-13.85c-3.23 5.12-7.52 9.2-12.86 12.19-5.36 3.01-11.62 4.51-18.79 4.51-12.45 0-22.21-3.97-29.23-11.86-7.02-7.93-10.56-18.76-10.56-32.52V96.53h32.1v59.34c0 7.19 1.66 12.74 4.96 16.7 3.3 3.96 8.02 5.93 14.19 5.93 6.14 0 11.06-2.16 14.73-6.47 3.66-4.32 5.51-10.37 5.51-18.12V96.53h-.05z"></path>
    <path fill="#131b39" d="M879.69 96.53h31.89v14.52c3.82-5.58 8.82-9.82 15.06-12.74s12.93-4.39 20.12-4.39c7.33 0 14.12 1.47 20.33 4.39a51.817 51.817 0 0116.28 11.98c4.63 5.05 8.26 11.07 10.89 18.02 2.63 6.98 3.96 14.47 3.96 22.54 0 8.06-1.33 15.53-3.96 22.41-2.63 6.88-6.26 12.9-10.89 18.03-4.63 5.12-10.04 9.15-16.28 12.09-6.24 2.94-13 4.39-20.33 4.39-7.19 0-13.88-1.35-20.12-4.06-6.24-2.7-11.24-6.92-15.06-12.64v59.77h-31.89V96.53zm86.62 54.27c0-3.96-.73-7.61-2.21-10.98-1.47-3.37-3.44-6.34-5.93-8.9-2.49-2.56-5.43-4.57-8.8-6.04-3.37-1.48-7.02-2.21-10.98-2.21-3.97 0-7.62.73-10.99 2.21-3.37 1.47-6.31 3.48-8.8 6.04-2.49 2.56-4.46 5.53-5.93 8.9-1.47 3.37-2.21 7.04-2.21 10.98 0 3.96.74 7.61 2.21 10.98s3.44 6.33 5.93 8.89c2.49 2.57 5.43 4.58 8.8 6.05 3.37 1.47 7.05 2.21 10.99 2.21 3.96 0 7.61-.74 10.98-2.21s6.31-3.48 8.8-6.05c2.49-2.56 4.46-5.52 5.93-8.89 1.48-3.34 2.21-7.02 2.21-10.98z"></path>
</svg>